<?xml version="1.0" encoding="utf-8"?>
<!-- Generator: Adobe Illustrator 19.2.0, SVG Export Plug-In . SVG Version: 6.00 Build 0)  -->
<!DOCTYPE svg PUBLIC "-//W3C//DTD SVG 1.1//EN" "http://www.w3.org/Graphics/SVG/1.1/DTD/svg11.dtd">
<svg version="1.1" id="brightfire-logo" xmlns="http://www.w3.org/2000/svg" xmlns:xlink="http://www.w3.org/1999/xlink" x="0px"
	 y="0px" viewBox="0 0 366.4 66.8" style="enable-background:new 0 0 366.4 66.8;" xml:space="preserve">
<style type="text/css">
	.st0{fill:#333333;}
</style>
<g>
	<path class="st0" d="M306.9,50.3h-7.4V32.4c0-10.3,8.4-18.7,18.7-18.7v7.4c-6.3,0-11.3,5.1-11.3,11.3L306.9,50.3L306.9,50.3z"/>
	<rect x="285" y="24.2" class="st0" width="7.4" height="26.1"/>
	<rect x="285" y="12.8" class="st0" width="7.4" height="7.4"/>
	<path class="st0" d="M275.8,0.2C265.4,0.2,257,8.6,257,19v31.3h7.4V31.6h8.5v-7.4h-8.5V19c0-6.3,5.1-11.4,11.4-11.4
		c2.5,0,4.7,0.8,6.6,2.1l4.2-6.1C283.5,1.4,279.8,0.2,275.8,0.2z"/>
	<path class="st0" d="M359.9,31.6c0-10.3-8.4-18.7-18.7-18.7s-18.7,8.4-18.7,18.7s8.4,18.7,18.7,18.7c3.9,0,7.7-1.2,10.9-3.5l-4.3-6
		c-1.9,1.4-4.2,2.1-6.6,2.1c-5,0-9.2-3.2-10.7-7.7H360v-3.6H359.9z M330.5,27.9c1.5-4.5,5.8-7.7,10.7-7.7c5,0,9.2,3.2,10.7,7.7
		H330.5z"/>
	<path class="st0" d="M25.1,29.2c-2.5,3.2-5.7,10.7-5.7,20.4c1.8,0.4,3.7,0.7,5.7,0.7s3.9-0.2,5.7-0.7
		C30.8,39.9,27.7,32.4,25.1,29.2z"/>
	<path class="st0" d="M18.5,11.8c2.3-4.6,4.1-8.8,5.2-11.7C10.5,0.8,0,11.7,0,25.1c0,9.7,5.5,18.2,13.6,22.4
		C3.1,35,12.9,23,18.5,11.8z"/>
	<path class="st0" d="M26.6,0c1.1,2.9,2.9,7.1,5.2,11.7C37.4,23,47.1,35,36.7,47.5c8.1-4.2,13.6-12.6,13.6-22.4
		C50.3,11.7,39.8,0.8,26.6,0z"/>
	<path class="st0" d="M110.4,50.3H103V32.4c0-10.3,8.4-18.7,18.7-18.7v7.4c-6.3,0-11.3,5.1-11.3,11.3L110.4,50.3L110.4,50.3z"/>
	<rect x="128.4" y="24.2" class="st0" width="7.4" height="26.1"/>
	<rect x="128.4" y="12.8" class="st0" width="7.4" height="7.4"/>
	<path class="st0" d="M78.2,12.9c-4.3,0-8.2,1.5-11.3,3.9V0h-7.4v31.6c0,10.3,8.4,18.7,18.7,18.7c10.3,0,18.7-8.4,18.7-18.7
		C97,21.3,88.6,12.9,78.2,12.9z M78.2,42.9c-6.3,0-11.3-5.1-11.3-11.3c0-6.3,5.1-11.3,11.3-11.3c6.3,0,11.3,5.1,11.3,11.3
		C89.6,37.8,84.5,42.9,78.2,42.9z"/>
	<path class="st0" d="M206.2,13.4c-4.3,0-8.2,1.4-11.3,3.9V0h-7.4v50.3h7.4V32.1c0-6.3,5.1-11.3,11.3-11.3c6.3,0,11.3,5.1,11.3,11.3
		v18.2h7.4V32.1C224.9,21.8,216.5,13.4,206.2,13.4z"/>
	<path class="st0" d="M238.5,33.3V20.2h8.4v-7.4h-8.4V3.2l-7.4,3.3v26.8c0,9.6,7.3,17.6,16.6,18.6l2.1-7.3
		C243.5,44.6,238.5,39.5,238.5,33.3z"/>
	<path class="st0" d="M179.8,31.5c0-10.3-8.4-18.7-18.7-18.7c-10.3,0-18.7,8.4-18.7,18.7s8.4,18.7,18.7,18.7c4.3,0,8.2-1.5,11.3-3.9
		V48c0,6.3-5.1,11.4-11.4,11.4c-2.5,0-4.7-0.8-6.6-2.1l-4.2,6.1c3.1,2.2,6.8,3.4,10.8,3.4c10.4,0,18.8-8.4,18.8-18.8V31.7l0,0
		C179.8,31.6,179.8,31.6,179.8,31.5z M161.1,42.8c-6.3,0-11.3-5.1-11.3-11.3c0-6.3,5.1-11.3,11.3-11.3c6.3,0,11.3,5.1,11.3,11.3
		S167.3,42.8,161.1,42.8z"/>
	<path class="st0" d="M364.7,9.6c-1.1,1.1-2.4,1.7-4,1.7s-2.9-0.6-4-1.7s-1.6-2.4-1.6-4c0-1.5,0.5-2.9,1.6-4c1.1-1.1,2.4-1.6,4-1.6
		s2.9,0.5,4,1.6s1.6,2.4,1.6,4C366.4,7.2,365.8,8.5,364.7,9.6z M357.3,2.2c-0.9,0.9-1.4,2.1-1.4,3.4c0,1.4,0.5,2.5,1.4,3.5
		s2.1,1.4,3.4,1.4c1.3,0,2.5-0.5,3.4-1.4c0.9-1,1.4-2.1,1.4-3.5c0-1.3-0.5-2.5-1.4-3.4c-0.9-1-2.1-1.4-3.4-1.4
		C359.4,0.8,358.3,1.3,357.3,2.2z M360.6,2.5c0.8,0,1.3,0.1,1.7,0.2c0.6,0.3,1,0.8,1,1.6c0,0.6-0.2,1-0.6,1.2
		c-0.2,0.1-0.5,0.2-0.9,0.3c0.5,0.1,0.8,0.3,1.1,0.6c0.2,0.3,0.3,0.6,0.3,1v0.5c0,0.1,0,0.3,0,0.5s0,0.3,0.1,0.3v0.1h-1
		c0,0,0,0,0-0.1s0,0,0-0.1V8.4V7.9c0-0.7-0.2-1.2-0.6-1.4c-0.2-0.1-0.6-0.2-1.2-0.2h-0.9v2.4h-1.1V2.5H360.6z M361.8,3.5
		c-0.3-0.2-0.7-0.2-1.3-0.2h-0.9v2.2h1c0.5,0,0.8,0,1-0.1c0.4-0.2,0.6-0.5,0.6-1C362.2,4,362.1,3.7,361.8,3.5z"/>
</g>
</svg>
